Uso basico del paquete censo2017 • censo2017
…
Con lo anterior, los niveles educacionales de las personas censadas se pueden agrupar por comuna y obtener la cuenta proporcionada en base a la suma total.

nivel_educacional_biobio <- nivel_educacional_biobio %>% 
  group_by(comuna, nivel_educ) %>%
  summarise(cuenta = n()) %>%
  group_by(comuna) %>%
  mutate(proporcion = cuenta / sum(cuenta))

Vemos los datos antes de continuar.

nivel_educacional_biobio
#> # A tibble: 860 x 4
#> # Groups:   comuna [54]
#>    comuna nivel_educ cuenta proporcion
#>    <chr>       <int>  <int>      <dbl>
#>  1 08101           1   4851    0.0217 
#>  2 08101           2   2701    0.0121 
#>  3 08101           3   3579    0.0160 
#>  4 08101           4    831    0.00372
#>  5 08101           5  37538    0.168  
#>  6 08101           6   5687    0.0254 
#>  7 08101           7  47356    0.212  
#>  8 08101           8  18641    0.0834 
#>  9 08101           9   5854    0.0262 
#> 10 08101          10   2653    0.0119 
#> # … with 850 more rows
…
