Poblacion por Nivel Educacional en la Region del Bio Bio — nivel_educacional_biobio • censo2017
…
    cuentacantidad de personas censadas en la comuna

    proporcionporcentaje que representan las personas censadas en la comuna

    Source

    Instituto Nacional de Estadisticas (INE)

    Examples

nivel_educacional_biobio

#> # A tibble: 860 x 4
#>    comuna nivel_educ cuenta proporcion
#>    <chr>       <int>  <int>      <dbl>
#>  1 08101           1   4851    0.0217 
#>  2 08101           2   2701    0.0121 
#>  3 08101           3   3579    0.0160 
#>  4 08101           4    831    0.00372
#>  5 08101           5  37538    0.168  
#>  6 08101           6   5687    0.0254 
#>  7 08101           7  47356    0.212  
#>  8 08101           8  18641    0.0834 
#>  9 08101           9   5854    0.0262 
#> 10 08101          10   2653    0.0119 
#> # … with 850 more rows
…
